﻿## Interface: 50400
## Title: GJHIntervate
## Author: Greg Hormann
## Notes: 
## eMail: ghormann@gmail.com
## DefaultState: Enabled
## LoadOnDemand: 0
## SavedVariables: GJHIntervate_Options
## Version: 0.8


GJHIntervate.lua
GJHIntervate.xml
